<?xml version="1.0" encoding="UTF-8" standalone="no"?>
<svg
   width="92mm"
   height="92mm"
   viewBox="0 0 92 92"
   version="1.1"
   id="svg283"
   sodipodi:docname="favicon (copie).svg"
   inkscape:version="1.2.2 (b0a8486541, 2022-12-01)"
   inkscape:export-filename="favicon.png"
   inkscape:export-xdpi="72.058701"
   inkscape:export-ydpi="72.058701"
   xmlns:inkscape="http://www.inkscape.org/namespaces/inkscape"
   xmlns:sodipodi="http://sodipodi.sourceforge.net/DTD/sodipodi-0.dtd"
   xmlns="http://www.w3.org/2000/svg"
   xmlns:svg="http://www.w3.org/2000/svg">
  <defs
     id="defs287" />
  <sodipodi:namedview
     id="namedview285"
     pagecolor="#ffffff"
     bordercolor="#000000"
     borderopacity="0.25"
     inkscape:showpageshadow="2"
     inkscape:pageopacity="0.0"
     inkscape:pagecheckerboard="0"
     inkscape:deskcolor="#d1d1d1"
     inkscape:document-units="mm"
     showgrid="false"
     inkscape:zoom="2.2805933"
     inkscape:cx="187.67046"
     inkscape:cy="181.75095"
     inkscape:window-width="1920"
     inkscape:window-height="995"
     inkscape:window-x="0"
     inkscape:window-y="0"
     inkscape:window-maximized="1"
     inkscape:current-layer="g12851-2" />
  <g
     id="g12851-2"
     transform="matrix(0.27333337,0,0,0.27333337,-18.69294,-5.0517884)"
     style="stroke:#50152c;stroke-opacity:0.992157"
     inkscape:export-filename="/home/fekete/Nextcloud-Antilopa/Disroot/Artwork/Icons/new_pngs/search.png"
     inkscape:export-xdpi="1080.73"
     inkscape:export-ydpi="1080.73">
    <path
       inkscape:connector-curvature="0"
       id="path3814-0-7-1"
       d="m 80.033739,36.455764 c -7.11959,15.242893 -10.17798,31.779192 -8.22563,48.814566 5.01677,43.77413 41.675291,79.3245 91.536091,95.16289 -6.62576,-22.40752 -5.34093,-44.9362 2.6395,-65.84431 C 118.24672,100.40622 84.338699,71.780528 80.033739,36.455764 Z"
       style="fill:#50142b;fill-opacity:0.992157;fill-rule:nonzero;stroke:#50152c;stroke-opacity:0.992157" />
    <path
       inkscape:connector-curvature="0"
       id="path3814-0-8"
       d="m 313.2893,37.799153 c 7.11959,15.242893 10.17798,31.779192 8.22563,48.814566 -5.01677,43.774131 -41.67531,79.324501 -91.53611,95.162891 6.62576,-22.40752 5.34093,-44.9362 -2.6395,-65.84431 47.73698,-14.18269 81.64502,-42.808383 85.94998,-78.133147 z"
       style="fill:#50142b;fill-opacity:0.992157;fill-rule:nonzero;stroke:#50152c;stroke-opacity:0.992157" />
    <path
       inkscape:connector-curvature="0"
       id="rect3804-7"
       d="m 201.77833,175.2842 12.07511,-13.9057 c 4.0785,-4.69679 19.95774,2.45971 35.60368,16.04598 l 130.50177,113.32219 c 15.64593,13.58626 24.95835,28.30512 20.87985,33.00192 l -12.07512,13.9057 c -4.07849,4.69679 -19.95774,-2.45971 -35.60367,-16.04598 L 222.65818,208.28612 C 207.01224,194.69986 197.69983,179.981 201.77833,175.2842 Z"
       style="fill:#50142b;fill-opacity:0.992157;fill-rule:nonzero;stroke:#50152c;stroke-opacity:0.992157" />
    <circle
       r="107.58125"
       cy="149.35568"
       cx="196.89389"
       id="path2987-9"
       style="fill:#50142b;fill-opacity:0.992157;fill-rule:nonzero;stroke:#50152c;stroke-opacity:0.992157" />
    <circle
       r="72.430138"
       cy="149.10315"
       cx="196.64131"
       id="path3757-9-0"
       style="fill:#ffffff;fill-opacity:0.992157;fill-rule:nonzero;stroke:#50152c;stroke-width:0.713454;stroke-opacity:0.992157" />
    <text
       xml:space="preserve"
       style="font-weight:bold;font-size:25.055px;font-family:'Liberation Sans';-inkscape-font-specification:'Liberation Sans Bold';text-align:center;text-anchor:middle;fill:#50162d;stroke-width:6.19641"
       x="199.42154"
       y="198.21521"
       id="text402"><tspan
         sodipodi:role="line"
         id="tspan400"
         style="font-style:normal;font-variant:normal;font-weight:bold;font-stretch:normal;font-size:150.33px;font-family:'Liberation Sans';-inkscape-font-specification:'Liberation Sans, Bold';font-variant-ligatures:normal;font-variant-caps:normal;font-variant-numeric:normal;font-variant-east-asian:normal;stroke-width:6.19641"
         x="199.42154"
         y="198.21521">?</tspan></text>
  </g>
</svg>
